<?xml version="1.0" encoding="UTF-8" standalone="no"?>
<!-- Created with Inkscape (http://www.inkscape.org/) -->

<svg
   width="224.23627"
   height="312.79639"
   id="svg4423"
   version="1.1"
   inkscape:version="1.1.2 (b8e25be833, 2022-02-05)"
   sodipodi:docname="8C.svg"
   xmlns:inkscape="http://www.inkscape.org/namespaces/inkscape"
   xmlns:sodipodi="http://sodipodi.sourceforge.net/DTD/sodipodi-0.dtd"
   xmlns="http://www.w3.org/2000/svg"
   xmlns:svg="http://www.w3.org/2000/svg"
   xmlns:rdf="http://www.w3.org/1999/02/22-rdf-syntax-ns#"
   xmlns:cc="http://creativecommons.org/ns#"
   xmlns:dc="http://purl.org/dc/elements/1.1/">
  <sodipodi:namedview
     id="base"
     pagecolor="#ffffff"
     bordercolor="#666666"
     borderopacity="1.0"
     inkscape:pageopacity="0.0"
     inkscape:pageshadow="2"
     inkscape:zoom="0.24748737"
     inkscape:cx="-589.92909"
     inkscape:cy="-161.62441"
     inkscape:document-units="px"
     inkscape:current-layer="layer1"
     showgrid="false"
     inkscape:snap-global="true"
     inkscape:snap-bbox="true"
     inkscape:snap-page="true"
     inkscape:window-width="751"
     inkscape:window-height="925"
     inkscape:window-x="830"
     inkscape:window-y="74"
     inkscape:window-maximized="0"
     inkscape:pagecheckerboard="0" />
  <defs
     id="defs4425" />
  <metadata
     id="metadata4428">
    <rdf:RDF>
      <cc:Work
         rdf:about="">
        <dc:format>image/svg+xml</dc:format>
        <dc:type
           rdf:resource="http://purl.org/dc/dcmitype/StillImage" />
        <dc:title />
      </cc:Work>
    </rdf:RDF>
  </metadata>
  <g
     id="layer1"
     inkscape:groupmode="layer"
     inkscape:label="8C"
     transform="translate(-259.92906,-369.78289)">
    <g
       transform="matrix(1.0000499,0,0,0.99996359,380.17123,-760.39814)"
       id="g4753"
       style="display:inline">
      <g
         transform="translate(-1317.7109,540.76905)"
         style="display:inline"
         id="g3690">
        <g
           id="g8423">
          <g
             transform="translate(-5059.9561,3024.9515)"
             style="display:inline"
             id="g8836-1">
            <rect
               y="-2435"
               x="6257.9292"
               height="311.81104"
               width="223.22835"
               id="rect6361-7"
               style="display:inline;fill:#ffffff;fill-opacity:1;stroke:#000000;stroke-width:0.996733;stroke-miterlimit:4;stroke-dasharray:none;stroke-opacity:1"
               rx="10.629921"
               ry="10.629921" />
            <g
               transform="matrix(0.30106207,0,0,0.30106207,5370.0941,-1979.9322)"
               id="g8646-4" />
          </g>
        </g>
      </g>
      <g
         transform="translate(-0.75192689)"
         id="g6836">
        <path
           transform="matrix(0.30106207,0,0,0.30106207,-1007.5729,1585.7883)"
           style="display:inline;fill:#000000;fill-opacity:1"
           d="m 2971.7422,-1386.8149 c 0.5319,-14.5332 5.8816,-19.9909 16.4206,-27.6004 -8.4057,-5.9629 -11.9499,-14.7364 -11.2342,-22.2121 1.7322,-18.0922 15.9763,-27.144 31.5053,-26.7498 15.5289,0.3942 28.9128,12.5011 29.9566,25.6486 0.9079,11.437 -2.5591,16.948 -10.8197,22.9693 9.8084,8.1096 16.0776,13.4522 15.8397,27.7687 -0.2379,14.3165 -12.641,31.3553 -34.2605,31.8784 -21.6196,0.5231 -37.9396,-17.1694 -37.4078,-31.7027 z m 60.3616,0.048 c 0.9274,-13.1605 -10.9222,-22.0398 -24.2916,-22.1778 -13.028,-0.1345 -24.6832,10.7839 -24.6854,22.5994 0,12.6917 15.1583,19.586 24.9483,19.6226 11.8988,0.044 23.2299,-8.7095 24.0287,-20.0442 z m -4.2782,-47.0779 c 0.2587,-11.0861 -10.1536,-19.0311 -20.888,-18.7114 -9.5508,0.2844 -19.6672,7.4427 -19.6723,16.7104 -0.01,11.5921 11.4996,17.3796 21.3142,17.598 8.9033,0.1981 19.0506,-7.2235 19.2461,-15.597 z"
           id="path7112-0"
           inkscape:connector-curvature="0"
           sodipodi:nodetypes="zcszsczzzssssssssss" />
        <path
           transform="matrix(0.30106207,0,0,0.30106207,-1007.5729,1585.7883)"
           sodipodi:nodetypes="zcszsczzzssssssssss"
           inkscape:connector-curvature="0"
           id="path7128-9"
           d="m 3667.7476,-600.56421 c -0.5319,14.5332 -5.8816,19.9909 -16.4206,27.6004 8.4057,5.9629 11.9499,14.7364 11.2342,22.2121 -1.7322,18.0922 -15.9763,27.144 -31.5053,26.7498 -15.5289,-0.3942 -28.9128,-12.5011 -29.9566,-25.6486 -0.9079,-11.437 2.5591,-16.948 10.8197,-22.9693 -9.8084,-8.1096 -16.0776,-13.4522 -15.8397,-27.7687 0.2379,-14.3165 12.641,-31.3553 34.2605,-31.8784 21.6196,-0.5231 37.9396,17.1694 37.4078,31.7027 z m -60.3616,-0.048 c -0.9274,13.1605 10.9222,22.0398 24.2916,22.1778 13.028,0.1345 24.6832,-10.7839 24.6854,-22.5994 0,-12.6917 -15.1583,-19.586 -24.9483,-19.6226 -11.8988,-0.044 -23.2299,8.7095 -24.0287,20.0442 z m 4.2782,47.0779 c -0.2587,11.0861 10.1536,19.0311 20.888,18.7114 9.5508,-0.2844 19.6672,-7.4427 19.6723,-16.7104 0.01,-11.5921 -11.4996,-17.3796 -21.3142,-17.598 -8.9033,-0.1981 -19.0506,7.2235 -19.2461,15.597 z"
           style="display:inline;fill:#000000;fill-opacity:1" />
        <path
           transform="translate(-1317.7109,540.76905)"
           style="display:inline;fill:#000000;fill-opacity:1"
           d="m 1354.7649,674.90571 c 2.879,-5.7755 4.9759,-11.701 5.3481,-18.0373 0.3416,-2.3317 -1.0746,-2.3708 -1.2881,-0.7286 -4.0764,15.5928 -25.7627,11.3704 -25.0171,-3.2965 0.605,-11.8948 12.4195,-14.4538 18.5823,-10.5645 2.4336,1.4328 2.2961,0.5746 0.9679,-0.9118 -9.1548,-10.2114 -3.6101,-23.36173 8.7612,-23.60243 13.3796,0.79343 16.8512,14.86993 8.6442,23.14833 -1.0206,0.9946 -3.2835,4.1913 0.123,1.9563 8.2868,-5.888 19.7873,0.4428 19.5527,9.5207 -0.4327,16.7389 -20.8391,17.9873 -25.2032,4.0058 -0.4198,-1.5502 -1.6291,-2.3286 -1.295,0.3043 0.6049,4.7666 1.8565,11.9534 5.4374,18.2057 z"
           id="path3309"
           inkscape:connector-curvature="0"
           sodipodi:nodetypes="cccscccccscscc" />
        <path
           transform="translate(-1317.7109,540.76905)"
           sodipodi:nodetypes="cccscccccscscc"
           inkscape:connector-curvature="0"
           id="path3311"
           d="m 1354.7649,775.15411 c 2.879,-5.7755 4.9759,-11.701 5.3481,-18.0373 0.3416,-2.3317 -1.0746,-2.3708 -1.2881,-0.7286 -4.0764,15.5928 -25.7627,11.3704 -25.0171,-3.2965 0.605,-11.8948 12.4195,-14.4538 18.5823,-10.5645 2.4336,1.4328 2.2961,0.5746 0.9679,-0.9118 -9.1548,-10.2114 -3.6101,-23.36173 8.7612,-23.60243 13.3796,0.79343 16.8512,14.86993 8.6442,23.14833 -1.0206,0.9946 -3.2835,4.1913 0.123,1.9563 8.2868,-5.888 19.7873,0.4428 19.5527,9.5207 -0.4327,16.7389 -20.8391,17.9873 -25.2032,4.0058 -0.4198,-1.5502 -1.6291,-2.3286 -1.295,0.3043 0.6049,4.7666 1.8565,11.9534 5.4374,18.2057 z"
           style="display:inline;fill:#000000;fill-opacity:1" />
        <path
           transform="translate(-1317.7109,540.76905)"
           style="display:inline;fill:#000000;fill-opacity:1"
           d="m 1251.2322,775.15411 c 2.879,-5.7755 4.9759,-11.701 5.3481,-18.0373 0.3416,-2.3317 -1.0746,-2.3708 -1.2881,-0.7286 -4.0764,15.5928 -25.7627,11.3704 -25.0171,-3.2965 0.605,-11.8948 12.4195,-14.4538 18.5823,-10.5645 2.4336,1.4328 2.2961,0.5746 0.9679,-0.9118 -9.1548,-10.2114 -3.6101,-23.36173 8.7612,-23.60243 13.3796,0.79343 16.8512,14.86993 8.6442,23.14833 -1.0206,0.9946 -3.2835,4.1913 0.123,1.9563 8.2868,-5.888 19.7873,0.4428 19.5527,9.5207 -0.4327,16.7389 -20.8391,17.9873 -25.2032,4.0058 -0.4198,-1.5502 -1.6291,-2.3286 -1.295,0.3043 0.6049,4.7666 1.8565,11.9534 5.4374,18.2057 z"
           id="path3313"
           inkscape:connector-curvature="0"
           sodipodi:nodetypes="cccscccccscscc" />
        <path
           transform="translate(-1317.7109,540.76905)"
           sodipodi:nodetypes="cccscccccscscc"
           inkscape:connector-curvature="0"
           id="path3315"
           d="m 1301.4153,725.02992 c 2.879,-5.7755 4.9759,-11.701 5.3481,-18.0373 0.3416,-2.3317 -1.0746,-2.3708 -1.2881,-0.7286 -4.0764,15.5928 -25.7627,11.3704 -25.0171,-3.2965 0.605,-11.8948 12.4195,-14.4538 18.5823,-10.5645 2.4336,1.4328 2.2961,0.5746 0.9679,-0.9118 -9.1548,-10.2114 -3.6101,-23.36173 8.7612,-23.60243 13.3796,0.79343 16.8512,14.86993 8.6442,23.14833 -1.0206,0.9946 -3.2835,4.1913 0.123,1.9563 8.2868,-5.888 19.7873,0.4428 19.5527,9.5207 -0.4327,16.7389 -20.8391,17.9873 -25.2032,4.0058 -0.4198,-1.5502 -1.6291,-2.3286 -1.295,0.3043 0.6049,4.7666 1.8565,11.9534 5.4374,18.2057 z"
           style="display:inline;fill:#000000;fill-opacity:1" />
        <path
           transform="translate(-1317.7109,540.76905)"
           style="display:inline;fill:#000000;fill-opacity:1"
           d="m 1251.2322,674.90571 c 2.879,-5.7755 4.9759,-11.701 5.3481,-18.0373 0.3416,-2.3317 -1.0746,-2.3708 -1.2881,-0.7286 -4.0764,15.5928 -25.7627,11.3704 -25.0171,-3.2965 0.605,-11.8948 12.4195,-14.4538 18.5823,-10.5645 2.4336,1.4328 2.2961,0.5746 0.9679,-0.9118 -9.1548,-10.2114 -3.6101,-23.36173 8.7612,-23.60243 13.3796,0.79343 16.8512,14.86993 8.6442,23.14833 -1.0206,0.9946 -3.2835,4.1913 0.123,1.9563 8.2868,-5.888 19.7873,0.4428 19.5527,9.5207 -0.4327,16.7389 -20.8391,17.9873 -25.2032,4.0058 -0.4198,-1.5502 -1.6291,-2.3286 -1.295,0.3043 0.6049,4.7666 1.8565,11.9534 5.4374,18.2057 z"
           id="path3317"
           inkscape:connector-curvature="0"
           sodipodi:nodetypes="cccscccccscscc" />
        <path
           transform="translate(-1317.7109,540.76905)"
           style="display:inline;fill:#000000;fill-opacity:1"
           d="m 1369.4669,816.61159 c -2.879,5.7755 -4.9759,11.701 -5.3481,18.0373 -0.3416,2.3317 1.0746,2.3708 1.2881,0.7286 4.0764,-15.5928 25.7627,-11.3704 25.0171,3.29653 -0.605,11.8948 -12.4195,14.4538 -18.5823,10.5645 -2.4336,-1.4328 -2.2961,-0.5746 -0.9679,0.9118 9.1548,10.2114 3.6101,23.3617 -8.7612,23.6024 -13.3796,-0.7934 -16.8512,-14.8699 -8.6442,-23.1483 1.0206,-0.9946 3.2835,-4.1913 -0.123,-1.9563 -8.2868,5.888 -19.7873,-0.4428 -19.5527,-9.5207 0.4327,-16.73893 20.8391,-17.98733 25.2032,-4.00583 0.4198,1.5502 1.6291,2.32863 1.295,-0.3043 -0.6049,-4.7666 -1.8565,-11.9534 -5.4374,-18.2057 z"
           id="path3375"
           inkscape:connector-curvature="0"
           sodipodi:nodetypes="cccscccccscscc" />
        <path
           transform="translate(-1317.7109,540.76905)"
           sodipodi:nodetypes="cccscccccscscc"
           inkscape:connector-curvature="0"
           id="path3377"
           d="m 1316.1173,767.31229 c -2.879,5.7755 -4.9759,11.701 -5.3481,18.0373 -0.3416,2.3317 1.0746,2.3708 1.2881,0.7286 4.0764,-15.5928 25.7627,-11.3704 25.0171,3.29653 -0.605,11.8948 -12.4195,14.4538 -18.5823,10.5645 -2.4336,-1.4328 -2.2961,-0.5746 -0.9679,0.9118 9.1548,10.2114 3.6101,23.3617 -8.7612,23.6024 -13.3796,-0.7934 -16.8512,-14.8699 -8.6442,-23.1483 1.0206,-0.9946 3.2835,-4.1913 -0.123,-1.9563 -8.2868,5.888 -19.7873,-0.4428 -19.5527,-9.5207 0.4327,-16.73893 20.8391,-17.98733 25.2032,-4.00583 0.4198,1.5502 1.6291,2.32863 1.295,-0.3043 -0.6049,-4.7666 -1.8565,-11.9534 -5.4374,-18.2057 z"
           style="display:inline;fill:#000000;fill-opacity:1" />
        <path
           transform="translate(-1317.7109,540.76905)"
           style="display:inline;fill:#000000;fill-opacity:1"
           d="m 1265.9342,816.61159 c -2.879,5.7755 -4.9759,11.701 -5.3481,18.0373 -0.3416,2.3317 1.0746,2.3708 1.2881,0.7286 4.0764,-15.5928 25.7627,-11.3704 25.0171,3.29653 -0.605,11.8948 -12.4195,14.4538 -18.5823,10.5645 -2.4336,-1.4328 -2.2961,-0.5746 -0.9679,0.9118 9.1548,10.2114 3.6101,23.3617 -8.7612,23.6024 -13.3796,-0.7934 -16.8512,-14.8699 -8.6442,-23.1483 1.0206,-0.9946 3.2835,-4.1913 -0.123,-1.9563 -8.2868,5.888 -19.7873,-0.4428 -19.5527,-9.5207 0.4327,-16.73893 20.8391,-17.98733 25.2032,-4.00583 0.4198,1.5502 1.6291,2.32863 1.295,-0.3043 -0.6049,-4.7666 -1.8565,-11.9534 -5.4374,-18.2057 z"
           id="path3379"
           inkscape:connector-curvature="0"
           sodipodi:nodetypes="cccscccccscscc" />
        <path
           transform="translate(-1317.7109,540.76905)"
           style="display:inline;fill:#000000;fill-opacity:1"
           d="m 1212.1828,667.2888 c 1.1921,-2.44508 2.3522,-4.72078 2.9843,-7.40087 0.4192,-2.52757 -0.4383,-1.58853 -0.9252,0.0682 -0.7212,2.29741 -2.7226,3.34375 -4.58,3.36887 -3.3711,0.0455 -5.0527,-2.60423 -4.9479,-5.45389 -0.3681,-2.99859 2.671,-5.12018 4.9617,-4.95674 1.7223,0.1229 3.224,1.05205 4.1329,1.77512 0.5963,0.3153 1.234,0.45461 0.3449,-0.35848 -1.6776,-1.83293 -3.0766,-2.96415 -3.046,-5.71082 0.029,-2.5787 2.2335,-5.26813 5.1554,-5.18375 3.6515,0.10546 5.312,2.8901 5.3033,5.48052 -0.01,1.88834 -0.9536,3.62629 -2.4114,4.70267 -0.9442,0.76609 -0.6794,1.33981 0.3977,0.61483 1.0349,-0.89201 2.2671,-1.28257 3.5448,-1.30996 3.4905,-0.0547 4.855,2.96148 4.6551,5.76418 -0.1874,2.62571 -2.4228,5.3284 -5.369,5.02231 -2.6307,-0.3015 -4.013,-2.50991 -4.8051,-4.77687 -0.2623,-0.69509 -0.676,-0.88281 -0.6645,0.15307 0.6077,5.05743 2.4916,8.20444 2.5053,8.20156 z"
           id="path3468"
           inkscape:connector-curvature="0"
           sodipodi:nodetypes="cccscsccssscccsccccc" />
        <path
           sodipodi:nodetypes="cccscsccssscccsccccc"
           inkscape:connector-curvature="0"
           id="path3490"
           d="m 90.7847,1369.1111 c -1.1921,2.4451 -2.3522,4.7208 -2.9843,7.4009 -0.4192,2.5275 0.4383,1.5885 0.9252,-0.068 0.7212,-2.2974 2.7226,-3.3438 4.58,-3.3689 3.3711,-0.045 5.0527,2.6042 4.9479,5.4539 0.3681,2.9986 -2.671,5.1202 -4.9617,4.9567 -1.7223,-0.1229 -3.224,-1.052 -4.1329,-1.7751 -0.5963,-0.3153 -1.234,-0.4546 -0.3449,0.3585 1.6776,1.8329 3.0766,2.9641 3.046,5.7108 -0.029,2.5787 -2.2335,5.2681 -5.1554,5.1838 -3.6515,-0.1055 -5.312,-2.8901 -5.3033,-5.4806 0.01,-1.8883 0.9536,-3.6263 2.4114,-4.7026 0.9442,-0.7661 0.6794,-1.3398 -0.3977,-0.6149 -1.0349,0.892 -2.2671,1.2826 -3.5448,1.31 -3.4905,0.055 -4.855,-2.9615 -4.6551,-5.7642 0.1874,-2.6257 2.4228,-5.3284 5.369,-5.0223 2.6307,0.3015 4.013,2.5099 4.8051,4.7769 0.2623,0.6951 0.676,0.8828 0.6645,-0.1531 -0.6077,-5.0574 -2.4916,-8.2044 -2.5053,-8.2016 z"
           style="display:inline;fill:#000000;fill-opacity:1" />
      </g>
    </g>
  </g>
</svg>
