<?xml version="1.0" encoding="UTF-8" standalone="no"?>
<!-- Created with Inkscape (http://www.inkscape.org/) -->

<svg
   width="224.22508"
   height="312.80777"
   id="svg4423"
   version="1.1"
   inkscape:version="1.1.2 (b8e25be833, 2022-02-05)"
   sodipodi:docname="5D.svg"
   xmlns:inkscape="http://www.inkscape.org/namespaces/inkscape"
   xmlns:sodipodi="http://sodipodi.sourceforge.net/DTD/sodipodi-0.dtd"
   xmlns="http://www.w3.org/2000/svg"
   xmlns:svg="http://www.w3.org/2000/svg"
   xmlns:rdf="http://www.w3.org/1999/02/22-rdf-syntax-ns#"
   xmlns:cc="http://creativecommons.org/ns#"
   xmlns:dc="http://purl.org/dc/elements/1.1/">
  <sodipodi:namedview
     id="base"
     pagecolor="#ffffff"
     bordercolor="#666666"
     borderopacity="1.0"
     inkscape:pageopacity="0.0"
     inkscape:pageshadow="2"
     inkscape:zoom="0.98994948"
     inkscape:cx="41.416255"
     inkscape:cy="29.294424"
     inkscape:document-units="px"
     inkscape:current-layer="layer1"
     showgrid="false"
     inkscape:snap-global="true"
     inkscape:snap-bbox="true"
     inkscape:snap-page="true"
     inkscape:window-width="741"
     inkscape:window-height="925"
     inkscape:window-x="632"
     inkscape:window-y="12"
     inkscape:window-maximized="0"
     inkscape:pagecheckerboard="0" />
  <defs
     id="defs4425" />
  <metadata
     id="metadata4428">
    <rdf:RDF>
      <cc:Work
         rdf:about="">
        <dc:format>image/svg+xml</dc:format>
        <dc:type
           rdf:resource="http://purl.org/dc/dcmitype/StillImage" />
        <dc:title />
      </cc:Work>
    </rdf:RDF>
  </metadata>
  <g
     id="layer1"
     inkscape:groupmode="layer"
     inkscape:label="5D"
     transform="translate(-259.93469,-369.7772)">
    <g
       id="g8915-4"
       style="display:inline"
       transform="translate(-6667.1812,3117.0866)">
      <rect
         ry="10.629921"
         rx="10.629921"
         style="display:inline;fill:#ffffff;fill-opacity:1;stroke:#000000;stroke-width:0.996733;stroke-miterlimit:4;stroke-dasharray:none;stroke-opacity:1"
         id="rect6355-6"
         width="223.22835"
         height="311.81104"
         x="6927.6143"
         y="-2746.811" />
      <g
         id="g8601-0"
         transform="matrix(0.30106207,0,0,0.30106207,5562.5812,-1947.8121)"
         style="fill:#d40000;fill-opacity:1">
        <path
           style="fill:#d40000;fill-opacity:1"
           d="m 4646.5883,-2464.9222 c 32.9523,-32.1577 54.5938,-67.2198 75.2905,-100.9391 18.1503,37.1021 44.1966,69.5614 72.3644,100.9391 -30.1372,31.1184 -53.4943,64.3931 -72.2743,99.3741 -20.8183,-35.8586 -42.7355,-68.3301 -75.3806,-99.3741 z"
           id="path3459"
           inkscape:connector-curvature="0"
           sodipodi:nodetypes="ccccc" />
        <path
           sodipodi:nodetypes="ccccc"
           inkscape:connector-curvature="0"
           id="path3463"
           d="m 4646.5883,-1811.7299 c 32.9523,-32.1577 54.5938,-67.2198 75.2905,-100.9391 18.1503,37.1021 44.1966,69.5614 72.3645,100.9391 -30.1373,31.1184 -53.4944,64.3931 -72.2743,99.3741 -20.8183,-35.8586 -42.7355,-68.3301 -75.3807,-99.3741 z"
           style="fill:#d40000;fill-opacity:1" />
        <path
           style="fill:#d40000;fill-opacity:1"
           d="m 5014.2243,-2464.9222 c 32.9523,-32.1577 54.5938,-67.2198 75.2905,-100.9391 18.1503,37.1021 44.1966,69.5614 72.3645,100.9391 -30.1373,31.1184 -53.4944,64.3931 -72.2743,99.3741 -20.8183,-35.8586 -42.7355,-68.3301 -75.3807,-99.3741 z"
           id="path3465"
           inkscape:connector-curvature="0"
           sodipodi:nodetypes="ccccc" />
        <path
           style="fill:#d40000;fill-opacity:1"
           d="m 4830.7311,-2135.2152 c 32.9523,-32.1577 54.5938,-67.2198 75.2905,-100.9391 18.1503,37.102 44.1966,69.5613 72.3645,100.9391 -30.1373,31.1184 -53.4944,64.3931 -72.2743,99.3741 -20.8183,-35.8586 -42.7355,-68.3301 -75.3807,-99.3741 z"
           id="path3467"
           inkscape:connector-curvature="0"
           sodipodi:nodetypes="ccccc" />
        <path
           sodipodi:nodetypes="ccccc"
           inkscape:connector-curvature="0"
           id="path3469"
           d="m 5014.2243,-1811.7299 c 32.9523,-32.1577 54.5938,-67.2198 75.2905,-100.9391 18.1503,37.1021 44.1966,69.5614 72.3645,100.9391 -30.1373,31.1184 -53.4944,64.3931 -72.2743,99.3741 -20.8183,-35.8586 -42.7355,-68.3301 -75.3807,-99.3741 z"
           style="fill:#d40000;fill-opacity:1" />
        <path
           sodipodi:nodetypes="ccccc"
           inkscape:connector-curvature="0"
           id="path3742"
           d="m 5184.3793,-1826.6918 c 13.4987,-13.1732 22.3638,-27.5361 30.8422,-41.349 7.435,15.1986 18.1048,28.4953 29.6436,41.349 -12.3457,12.7474 -21.9137,26.3781 -29.6068,40.7078 -8.5281,-14.6892 -17.5062,-27.9909 -30.879,-40.7078 z"
           style="fill:#d40000;fill-opacity:1" />
        <path
           style="fill:#d40000;fill-opacity:1"
           d="m 4564.2156,-2444.0316 c 13.4987,-13.1732 22.3638,-27.5361 30.8422,-41.349 7.435,15.1986 18.1048,28.4953 29.6436,41.349 -12.3457,12.7474 -21.9137,26.3781 -29.6068,40.7078 -8.5281,-14.6892 -17.5062,-27.9909 -30.879,-40.7078 z"
           id="path3744"
           inkscape:connector-curvature="0"
           sodipodi:nodetypes="ccccc" />
        <path
           style="display:inline;fill:#d40000;fill-opacity:1"
           d="m 4561.2262,-2529.2496 10.6958,-0.094 c 2.034,6.4574 6.5502,13.0412 12.6783,14.8589 17.3116,4.0652 28.4573,-5.6046 32.1281,-16.7626 4.4514,-13.5306 -0.1008,-32.5364 -12.0159,-39.2867 -9.8838,-5.5995 -24.5629,-0.877 -31.296,11.0892 l -7.4975,-4.5831 4.0237,-44.5815 h 48.9286 v 10.5356 h -39.6521 l -0.6221,18.5714 c 8.5208,-5.9858 21.6503,-5.9276 30.1777,-1.7268 16.1588,7.7024 23.663,25.2198 20.5183,45.8727 -4.3527,20.5381 -13.942,32.1745 -35.599,33.8468 -24.0636,0.2079 -32.5637,-16.3356 -32.4679,-27.7394 z"
           id="path7106-71"
           inkscape:connector-curvature="0"
           sodipodi:nodetypes="cccssccccccccccc" />
        <path
           sodipodi:nodetypes="cccssccccccccccc"
           inkscape:connector-curvature="0"
           id="path7122-7"
           d="m 5248.3603,-1742.9152 -10.6958,0.094 c -2.034,-6.4574 -6.5502,-13.0412 -12.6783,-14.8589 -17.3116,-4.0652 -28.4573,5.6046 -32.1281,16.7626 -4.4514,13.5306 0.1008,32.5364 12.0159,39.2867 9.8838,5.5995 24.5629,0.877 31.296,-11.0892 l 7.4975,4.5831 -4.0237,44.5816 h -48.9286 v -10.5357 h 39.6521 l 0.6221,-18.5714 c -8.5208,5.9858 -21.6503,5.9276 -30.1777,1.7268 -16.1588,-7.7024 -23.663,-25.2198 -20.5183,-45.8727 4.3527,-20.5381 13.942,-32.1745 35.599,-33.8468 24.0636,-0.2079 32.5637,16.3356 32.4679,27.7394 z"
           style="display:inline;fill:#d40000;fill-opacity:1" />
      </g>
    </g>
  </g>
</svg>
