<?xml version="1.0" encoding="UTF-8" standalone="no"?>
<!-- Created with Inkscape (http://www.inkscape.org/) -->

<svg
   width="224.22508"
   height="312.80777"
   id="svg4423"
   version="1.1"
   inkscape:version="1.1.2 (b8e25be833, 2022-02-05)"
   sodipodi:docname="8H.svg"
   xmlns:inkscape="http://www.inkscape.org/namespaces/inkscape"
   xmlns:sodipodi="http://sodipodi.sourceforge.net/DTD/sodipodi-0.dtd"
   xmlns="http://www.w3.org/2000/svg"
   xmlns:svg="http://www.w3.org/2000/svg"
   xmlns:rdf="http://www.w3.org/1999/02/22-rdf-syntax-ns#"
   xmlns:cc="http://creativecommons.org/ns#"
   xmlns:dc="http://purl.org/dc/elements/1.1/">
  <sodipodi:namedview
     id="base"
     pagecolor="#ffffff"
     bordercolor="#666666"
     borderopacity="1.0"
     inkscape:pageopacity="0.0"
     inkscape:pageshadow="2"
     inkscape:zoom="0.98994948"
     inkscape:cx="-72.730984"
     inkscape:cy="6.0609154"
     inkscape:document-units="px"
     inkscape:current-layer="layer1"
     showgrid="false"
     inkscape:snap-global="true"
     inkscape:snap-bbox="true"
     inkscape:snap-page="true"
     inkscape:window-width="739"
     inkscape:window-height="925"
     inkscape:window-x="803"
     inkscape:window-y="66"
     inkscape:window-maximized="0"
     inkscape:pagecheckerboard="0" />
  <defs
     id="defs4425" />
  <metadata
     id="metadata4428">
    <rdf:RDF>
      <cc:Work
         rdf:about="">
        <dc:format>image/svg+xml</dc:format>
        <dc:type
           rdf:resource="http://purl.org/dc/dcmitype/StillImage" />
        <dc:title />
      </cc:Work>
    </rdf:RDF>
  </metadata>
  <g
     id="layer1"
     inkscape:groupmode="layer"
     inkscape:label="8H"
     transform="translate(-259.93473,-369.7772)">
    <g
       transform="translate(-1313.6208,-113.66123)"
       id="g9013"
       style="display:inline">
      <g
         id="g8854">
        <g
           transform="translate(-4683.8753,2918.9368)"
           id="g8836">
          <rect
             ry="10.629921"
             rx="10.629921"
             style="display:inline;fill:#ffffff;fill-opacity:1;stroke:#000000;stroke-width:0.996733;stroke-miterlimit:4;stroke-dasharray:none;stroke-opacity:1"
             id="rect6361"
             width="223.22835"
             height="311.81104"
             x="6257.9292"
             y="-2435" />
          <g
             id="g8646"
             transform="matrix(0.30106207,0,0,0.30106207,5370.0941,-1979.9322)">
            <path
               style="display:inline;fill:#d40000;fill-opacity:1"
               d="m 2971.7422,-1386.8149 c 0.5319,-14.5332 5.8816,-19.9909 16.4206,-27.6004 -8.4057,-5.9629 -11.9499,-14.7364 -11.2342,-22.2121 1.7322,-18.0922 15.9763,-27.144 31.5053,-26.7498 15.5289,0.3942 28.9128,12.5011 29.9566,25.6486 0.9079,11.437 -2.5591,16.948 -10.8197,22.9693 9.8084,8.1096 16.0776,13.4522 15.8397,27.7687 -0.2379,14.3165 -12.641,31.3553 -34.2605,31.8784 -21.6196,0.5231 -37.9396,-17.1694 -37.4078,-31.7027 z m 60.3616,0.048 c 0.9274,-13.1605 -10.9222,-22.0398 -24.2916,-22.1778 -13.028,-0.1345 -24.6832,10.7839 -24.6854,22.5994 0,12.6917 15.1583,19.586 24.9483,19.6226 11.8988,0.044 23.2299,-8.7095 24.0287,-20.0442 z m -4.2782,-47.0779 c 0.2587,-11.0861 -10.1536,-19.0311 -20.888,-18.7114 -9.5508,0.2844 -19.6672,7.4427 -19.6723,16.7104 -0.01,11.5921 11.4996,17.3796 21.3142,17.598 8.9033,0.1981 19.0506,-7.2235 19.2461,-15.597 z"
               id="path7112"
               inkscape:connector-curvature="0"
               sodipodi:nodetypes="zcszsczzzssssssssss" />
            <path
               sodipodi:nodetypes="zcszsczzzssssssssss"
               inkscape:connector-curvature="0"
               id="path7128"
               d="m 3667.7476,-600.56421 c -0.5319,14.5332 -5.8816,19.9909 -16.4206,27.6004 8.4057,5.9629 11.9499,14.7364 11.2342,22.2121 -1.7322,18.0922 -15.9763,27.144 -31.5053,26.7498 -15.5289,-0.3942 -28.9128,-12.5011 -29.9566,-25.6486 -0.9079,-11.437 2.5591,-16.948 10.8197,-22.9693 -9.8084,-8.1096 -16.0776,-13.4522 -15.8397,-27.7687 0.2379,-14.3165 12.641,-31.3553 34.2605,-31.8784 21.6196,-0.5231 37.9396,17.1694 37.4078,31.7027 z m -60.3616,-0.048 c -0.9274,13.1605 10.9222,22.0398 24.2916,22.1778 13.028,0.1345 24.6832,-10.7839 24.6854,-22.5994 0,-12.6917 -15.1583,-19.586 -24.9483,-19.6226 -11.8988,-0.044 -23.2299,8.7095 -24.0287,20.0442 z m 4.2782,47.0779 c -0.2587,11.0861 10.1536,19.0311 20.888,18.7114 9.5508,-0.2844 19.6672,-7.4427 19.6723,-16.7104 0.01,-11.5921 -11.4996,-17.3796 -21.3142,-17.598 -8.9033,-0.1981 -19.0506,7.2235 -19.2461,15.597 z"
               style="display:inline;fill:#d40000;fill-opacity:1" />
          </g>
        </g>
      </g>
      <path
         style="display:inline;fill:#d40000;fill-opacity:1"
         d="m 1583.6358,546.84687 c -1.583,-3.47229 -1.7567,-9.4054 2.9711,-10.20801 3.5621,-0.45844 5.0117,1.1983 5.2999,3.74186 0.1422,0.74302 0.5617,0.7885 0.6948,-0.0583 0.2044,-2.60939 2.7872,-4.1326 4.8064,-3.74997 5.5266,0.9454 5.2039,7.02845 3.3985,11.15554 -2.7309,5.47946 -5.6006,8.93761 -8.245,14.45186 -3.0382,-5.74101 -6.5073,-10.4051 -8.9257,-15.33294 z"
         id="path8634"
         inkscape:connector-curvature="0"
         sodipodi:nodetypes="cccccccc" />
      <path
         sodipodi:nodetypes="ccccsccssc"
         inkscape:connector-curvature="0"
         id="path8548"
         d="m 1618.6142,511.5738 c 7.144,-0.4744 10.8684,5.62741 11.5952,10.43645 0.4334,0.76389 0.6707,0.54864 0.8369,-0.0423 0.3493,-6.17414 5.8749,-11.22017 10.9926,-10.53018 8.328,0.10829 13.3895,9.3754 11.9664,17.21876 -1.7385,9.58159 -6.8997,15.35109 -10.8078,21.29311 -4.4213,6.15238 -10.3727,15.0395 -12.2901,19.31683 0,0 -6.0483,-9.20452 -13.9172,-20.02959 -5.2618,-7.23851 -9.4731,-15.08233 -9.8651,-21.83538 -0.4479,-7.71548 2.7193,-14.63175 11.4891,-15.82765 z"
         style="display:inline;fill:#d40000;fill-opacity:1" />
      <path
         sodipodi:nodetypes="ccccsccssc"
         inkscape:connector-curvature="0"
         id="path8550"
         d="m 1728.147,511.5738 c 7.144,-0.4744 10.8684,5.62741 11.5952,10.43645 0.4334,0.76389 0.6707,0.54864 0.8369,-0.0423 0.3493,-6.17414 5.8749,-11.22017 10.9926,-10.53018 8.328,0.10829 13.3895,9.3754 11.9664,17.21876 -1.7385,9.58159 -6.8997,15.35109 -10.8078,21.29311 -4.4213,6.15238 -10.3727,15.0395 -12.2901,19.31683 0,0 -6.0483,-9.20452 -13.9172,-20.02959 -5.2618,-7.23851 -9.4731,-15.08233 -9.8651,-21.83538 -0.4479,-7.71548 2.7193,-14.63175 11.4891,-15.82765 z"
         style="display:inline;fill:#d40000;fill-opacity:1" />
      <path
         sodipodi:nodetypes="ccccsccssc"
         inkscape:connector-curvature="0"
         id="path8552"
         d="m 1672.7974,561.69802 c 7.144,-0.4744 10.8684,5.62741 11.5952,10.43645 0.4334,0.76389 0.6707,0.54864 0.8369,-0.0423 0.3493,-6.17414 5.8749,-11.22017 10.9926,-10.53018 8.328,0.10829 13.3895,9.3754 11.9664,17.21876 -1.7385,9.58159 -6.8997,15.35109 -10.8078,21.29311 -4.4213,6.15238 -10.3727,15.0395 -12.2901,19.31683 0,0 -6.0483,-9.20452 -13.9172,-20.02959 -5.2618,-7.23851 -9.4731,-15.08233 -9.8651,-21.83538 -0.4479,-7.71548 2.7193,-14.63175 11.4891,-15.82765 z"
         style="display:inline;fill:#d40000;fill-opacity:1" />
      <path
         sodipodi:nodetypes="ccccsccssc"
         inkscape:connector-curvature="0"
         id="path8554"
         d="m 1618.6142,611.82222 c 7.144,-0.4744 10.8684,5.62741 11.5952,10.43645 0.4334,0.76389 0.6707,0.54864 0.8369,-0.0423 0.3493,-6.17414 5.8749,-11.22017 10.9926,-10.53018 8.328,0.10829 13.3895,9.3754 11.9664,17.21876 -1.7385,9.58159 -6.8997,15.35109 -10.8078,21.29311 -4.4213,6.15238 -10.3727,15.0395 -12.2901,19.31683 0,0 -6.0483,-9.20452 -13.9172,-20.02959 -5.2618,-7.23851 -9.4731,-15.08233 -9.8651,-21.83538 -0.4479,-7.71548 2.7193,-14.63175 11.4891,-15.82765 z"
         style="display:inline;fill:#d40000;fill-opacity:1" />
      <path
         sodipodi:nodetypes="ccccsccssc"
         inkscape:connector-curvature="0"
         id="path8556"
         d="m 1728.147,611.82222 c 7.144,-0.4744 10.8684,5.62741 11.5952,10.43645 0.4334,0.76389 0.6707,0.54864 0.8369,-0.0423 0.3493,-6.17414 5.8749,-11.22017 10.9926,-10.53018 8.328,0.10829 13.3895,9.3754 11.9664,17.21876 -1.7385,9.58159 -6.8997,15.35109 -10.8078,21.29311 -4.4213,6.15238 -10.3727,15.0395 -12.2901,19.31683 0,0 -6.0483,-9.20452 -13.9172,-20.02959 -5.2618,-7.23851 -9.4731,-15.08233 -9.8651,-21.83538 -0.4479,-7.71548 2.7193,-14.63175 11.4891,-15.82765 z"
         style="display:inline;fill:#d40000;fill-opacity:1" />
      <path
         sodipodi:nodetypes="ccccsccssc"
         inkscape:connector-curvature="0"
         id="path8614"
         d="m 1728.147,767.91416 c 7.144,0.4744 10.8684,-5.62741 11.5952,-10.43645 0.4334,-0.76389 0.6707,-0.54864 0.8369,0.0423 0.3493,6.17414 5.8749,11.22017 10.9926,10.53018 8.328,-0.10829 13.3895,-9.3754 11.9664,-17.21876 -1.7385,-9.58159 -6.8997,-15.35109 -10.8078,-21.29311 -4.4213,-6.15238 -10.3727,-15.0395 -12.2901,-19.31683 0,0 -6.0483,9.20452 -13.9172,20.02959 -5.2618,7.23851 -9.4731,15.08233 -9.8651,21.83538 -0.4479,7.71548 2.7193,14.63175 11.4891,15.82765 z"
         style="display:inline;fill:#d40000;fill-opacity:1" />
      <path
         sodipodi:nodetypes="ccccsccssc"
         inkscape:connector-curvature="0"
         id="path8616"
         d="m 1672.7974,718.61487 c 7.144,0.4744 10.8684,-5.62741 11.5952,-10.43645 0.4334,-0.76389 0.6707,-0.54864 0.8369,0.0423 0.3493,6.17414 5.8749,11.22017 10.9926,10.53018 8.328,-0.10829 13.3895,-9.3754 11.9664,-17.21876 -1.7385,-9.58159 -6.8997,-15.35109 -10.8078,-21.29311 -4.4213,-6.15238 -10.3727,-15.0395 -12.2901,-19.31683 0,0 -6.0483,9.20452 -13.9172,20.02959 -5.2618,7.23851 -9.4731,15.08233 -9.8651,21.83538 -0.4479,7.71548 2.7193,14.63175 11.4891,15.82765 z"
         style="display:inline;fill:#d40000;fill-opacity:1" />
      <path
         sodipodi:nodetypes="ccccsccssc"
         inkscape:connector-curvature="0"
         id="path8618"
         d="m 1618.6142,767.91416 c 7.144,0.4744 10.8684,-5.62741 11.5952,-10.43645 0.4334,-0.76389 0.6707,-0.54864 0.8369,0.0423 0.3493,6.17414 5.8749,11.22017 10.9926,10.53018 8.328,-0.10829 13.3895,-9.3754 11.9664,-17.21876 -1.7385,-9.58159 -6.8997,-15.35109 -10.8078,-21.29311 -4.4213,-6.15238 -10.3727,-15.0395 -12.2901,-19.31683 0,0 -6.0483,9.20452 -13.9172,20.02959 -5.2618,7.23851 -9.4731,15.08233 -9.8651,21.83538 -0.4479,7.71548 2.7193,14.63175 11.4891,15.82765 z"
         style="display:inline;fill:#d40000;fill-opacity:1" />
      <path
         sodipodi:nodetypes="cccccccc"
         inkscape:connector-curvature="0"
         id="path8664"
         d="m 1772.451,737.70455 c -1.583,3.47229 -1.7567,9.4054 2.9711,10.20801 3.5621,0.45844 5.0117,-1.1983 5.2999,-3.74186 0.1422,-0.74302 0.5617,-0.7885 0.6948,0.0583 0.2044,2.60939 2.7872,4.1326 4.8064,3.74997 5.5266,-0.9454 5.2039,-7.02845 3.3985,-11.15554 -2.7309,-5.47946 -5.6006,-8.93761 -8.245,-14.45186 -3.0382,5.74101 -6.5073,10.4051 -8.9257,15.33294 z"
         style="display:inline;fill:#d40000;fill-opacity:1" />
    </g>
  </g>
</svg>
